Load migration data — get_migration • demogmx
…
get_migration(v_state = "Mexico City",
              v_year = c(2000, 2010),
              v_sex = "Female",
              v_age = c(0, 15, 35, 45, 75),
              v_type = c("Interstate", "International", "Total"),
              age_groups = FALSE)
#> # A tibble: 30 x 12
#>     year state      CVE_GEO sex     age emigrants immigrants type  net_migration
#>    <int> <chr>        <dbl> <chr> <int>     <dbl>      <dbl> <chr>         <dbl>
#>  1  2000 Mexico Ci~       9 Fema~     0       160         77 Inte~           -83
#>  2  2000 Mexico Ci~       9 Fema~     0      4048        746 Inte~         -3302
#>  3  2000 Mexico Ci~       9 Fema~     0      4209        823 Total         -3386
#>  4  2000 Mexico Ci~       9 Fema~    15       408         49 Inte~          -359
#>  5  2000 Mexico Ci~       9 Fema~    15       859        783 Inte~           -76
#>  6  2000 Mexico Ci~       9 Fema~    15      1267        831 Total          -436
#>  7  2000 Mexico Ci~       9 Fema~    35       101         84 Inte~           -17
#>  8  2000 Mexico Ci~       9 Fema~    35       985        291 Inte~          -694
#>  9  2000 Mexico Ci~       9 Fema~    35      1086        375 Total          -711
#> 10  2000 Mexico Ci~       9 Fema~    45        42         47 Inte~             5
#> # ... with 20 more rows, and 3 more variables: em_rate <dbl>, im_rate <dbl>,
#> #   nm_rate <dbl>
…
